<svg width="24" height="24" viewBox="0 0 24 24" fill="none" xmlns="http://www.w3.org/2000/svg">
<g clip-path="url(#clip0_4_124)">
<path d="M9.99976 12C9.99976 12.5304 10.2105 13.0391 10.5855 13.4142C10.9606 13.7893 11.4693 14 11.9998 14C12.5302 14 13.0389 13.7893 13.414 13.4142C13.789 13.0391 13.9998 12.5304 13.9998 12C13.9998 11.4696 13.789 10.9609 13.414 10.5858C13.0389 10.2107 12.5302 10 11.9998 10C11.4693 10 10.9606 10.2107 10.5855 10.5858C10.2105 10.9609 9.99976 11.4696 9.99976 12Z" stroke="#DBA353" stroke-width="1.5" stroke-linecap="round" stroke-linejoin="round"/>
<path d="M13.048 17.942C12.7 17.9811 12.3501 18.0004 12 18C8.4 18 5.4 16 3 12C5.4 8 8.4 6 12 6C15.6 6 18.6 8 21 12C20.5905 12.6879 20.1354 13.3477 19.638 13.975" stroke="#DBA353" stroke-width="1.5" stroke-linecap="round" stroke-linejoin="round"/>
<path d="M22.0002 22L17.0002 17" stroke="#DBA353" stroke-width="1.5" stroke-linecap="round" stroke-linejoin="round"/>
<path d="M17.0002 22L22.0002 17" stroke="#DBA353" stroke-width="1.5" stroke-linecap="round" stroke-linejoin="round"/>
</g>
<defs>
<clipPath id="clip0_4_124">
<rect width="24" height="24" fill="white"/>
</clipPath>
</defs>
</svg>
